[
  {
    "model": "events.event",
    "pk": 1,
    "fields": {
      "title": "event_1",
      "description": "description_1",
      "date_at": "2019-11-15T10:00:00.001Z"
    }
  },
  {
    "model": "events.event",
    "pk": 2,
    "fields": {
      "title": "event_2",
      "description": "description_2",
      "date_at": "2019-11-15T21:00:00.001Z"
    }
  }
]